{
  "name": "OPS_LOG_LivewellWaveOrder_Dispatcher",
  "description": "OPS_LOG_LivewellWaveOrder_Dispatcher",
  "main": "Main.xaml",
  "dependencies": {
    "RenderHTMLTable": "[1.0.2]",
    "UiPath.Database.Activities": "[1.4.0]",
    "UiPath.Excel.Activities": "[2.10.4]",
    "UiPath.Mail.Activities": "[1.10.5]",
    "UiPath.System.Activities": "[21.4.0]",
    "UiPath.UIAutomation.Activities": "[21.4.3]",
    "UiPath.WebAPI.Activities": "[1.7.0]"
  },
  "webServices": [],
  "entitiesStores": [],
  "schemaVersion": "4.0",
  "studioVersion": "21.4.3.0",
  "projectVersion": "1.0.4",
  "runtimeOptions": {
    "autoDispose": false,
    "isPausable": true,
    "isAttended": false,
    "requiresUserInteraction": true,
    "supportsPersistence": false,
    "excludedLoggedData": [
      "Private:*",
      "*password*"
    ],
    "executionType": "Workflow",
    "readyForPiP": false,
    "startsInPiP": false,
    "mustRestoreAllDependencies": false
  },
  "designOptions": {
    "projectProfile": "Developement",
    "outputType": "Process",
    "libraryOptions": {
      "includeOriginalXaml": false,
      "privateWorkflows": []
    },
    "processOptions": {
      "ignoredFiles": []
    },
    "fileInfoCollection": [],
    "modernBehavior": false
  },
  "expressionLanguage": "VisualBasic",
  "entryPoints": [
    {
      "filePath": "Main.xaml",
      "uniqueId": "4b98f001-bc0f-40aa-b50a-9743f2758194",
      "input": [],
      "output": []
    }
  ],
  "isTemplate": false,
  "templateProjectData": {},
  "publishData": {},
  "targetFramework": "Legacy"
}