{
  "name": "OPS_LOG_LivewellWaveOrder_Wrapper",
  "description": "OPS_LOG_LivewellWaveOrder_Wrapper",
  "main": "Main.xaml",
  "dependencies": {
    "RenderHTMLTable": "[1.0.2]",
    "UiPath.Excel.Activities": "[2.10.4]",
    "UiPath.Mail.Activities": "[1.10.4]",
    "UiPath.System.Activities": "[21.4.0]",
    "UiPath.UIAutomation.Activities": "[21.4.3]",
    "UiPath.WebAPI.Activities": "[1.7.0]"
  },
  "webServices": [],
  "entitiesStores": [],
  "schemaVersion": "4.0",
  "studioVersion": "21.4.3.0",
  "projectVersion": "1.0.6",
  "runtimeOptions": {
    "autoDispose": false,
    "isPausable": true,
    "isAttended": false,
    "requiresUserInteraction": true,
    "supportsPersistence": false,
    "excludedLoggedData": [
      "Private:*",
      "*password*"
    ],
    "executionType": "Workflow",
    "readyForPiP": false,
    "startsInPiP": false,
    "mustRestoreAllDependencies": false
  },
  "designOptions": {
    "projectProfile": "Developement",
    "outputType": "Process",
    "libraryOptions": {
      "includeOriginalXaml": false,
      "privateWorkflows": []
    },
    "processOptions": {
      "ignoredFiles": []
    },
    "fileInfoCollection": [],
    "modernBehavior": false
  },
  "arguments": {
    "input": [
      {
        "name": "in_IgnoreInProgressItems",
        "type": "System.Boolean, mscorlib, Version=4.0.0.0, Culture=neutral, PublicKeyToken=b77a5c561934e089",
        "required": false,
        "hasDefault": true
      }
    ],
    "output": []
  },
  "expressionLanguage": "VisualBasic",
  "entryPoints": [
    {
      "filePath": "Main.xaml",
      "uniqueId": "4d092f4b-4e29-4c03-9fb8-1113fbe96e59",
      "input": [
        {
          "name": "in_IgnoreInProgressItems",
          "type": "System.Boolean, mscorlib, Version=4.0.0.0, Culture=neutral, PublicKeyToken=b77a5c561934e089",
          "required": false,
          "hasDefault": true
        }
      ],
      "output": []
    }
  ],
  "isTemplate": false,
  "templateProjectData": {},
  "publishData": {},
  "targetFramework": "Legacy"
}