{
  "version": "2.0",
  "resources": [
    {
      "resource": "queue",
      "value": {
        "name": {
          "defaultValue": "queueName",
          "isExpression": true
        },
        "folderPath": {
          "isExpression": true
        }
      },
      "metadata": {}
    },
    {
      "resource": "asset",
      "value": {
        "name": {
          "defaultValue": "in_JSONAssetName",
          "isExpression": true
        },
        "folderPath": {
          "isExpression": true
        }
      },
      "metadata": {}
    },
    {
      "resource": "queue",
      "value": {
        "folderPath": {
          "isExpression": true
        }
      },
      "metadata": {}
    },
    {
      "resource": "queue",
      "value": {
        "name": {
          "defaultValue": "in_QueueName",
          "isExpression": true
        },
        "folderPath": {
          "isExpression": true
        }
      },
      "metadata": {}
    },
    {
      "resource": "process",
      "value": {
        "folderPath": {
          "isExpression": true
        }
      },
      "metadata": {}
    }
  ]
}